<?xml version="1.0" encoding="UTF-8" standalone="no"?>
<svg
   xmlns:dc="http://purl.org/dc/elements/1.1/"
   xmlns:cc="http://creativecommons.org/ns#"
   xmlns:rdf="http://www.w3.org/1999/02/22-rdf-syntax-ns#"
   xmlns:svg="http://www.w3.org/2000/svg"
   xmlns="http://www.w3.org/2000/svg"
   xmlns:sodipodi="http://sodipodi.sourceforge.net/DTD/sodipodi-0.dtd"
   xmlns:inkscape="http://www.inkscape.org/namespaces/inkscape"
   width="180"
   height="120"
   version="1.1"
   viewBox="-2.7741 -2.7741 36.604308 24.39683"
   id="svg12"
   sodipodi:docname="appad.svg"
   inkscape:version="0.92.2 (5c3e80d, 2017-08-06)"
   inkscape:export-filename="C:\Users\Marco\Documents\CryptoConsortium\ethereum\www\img\appad.png"
   inkscape:export-xdpi="96"
   inkscape:export-ydpi="96">
  <metadata
     id="metadata18">
    <rdf:RDF>
      <cc:Work
         rdf:about="">
        <dc:format>image/svg+xml</dc:format>
        <dc:type
           rdf:resource="http://purl.org/dc/dcmitype/StillImage" />
        <dc:title></dc:title>
      </cc:Work>
    </rdf:RDF>
  </metadata>
  <defs
     id="defs16" />
  <sodipodi:namedview
     pagecolor="#ffffff"
     bordercolor="#666666"
     borderopacity="1"
     objecttolerance="10"
     gridtolerance="10"
     guidetolerance="10"
     inkscape:pageopacity="0"
     inkscape:pageshadow="2"
     inkscape:window-width="1378"
     inkscape:window-height="877"
     id="namedview14"
     showgrid="false"
     inkscape:zoom="1.2291667"
     inkscape:cx="325.57331"
     inkscape:cy="211.55773"
     inkscape:window-x="-8"
     inkscape:window-y="-8"
     inkscape:window-maximized="1"
     inkscape:current-layer="svg12" />
  <rect
     style="opacity:1;fill:#00222b;fill-opacity:1;stroke:none;stroke-width:0.29186812;stroke-miterlimit:4;stroke-dasharray:none;stroke-opacity:1"
     id="rect4669"
     width="36.604309"
     height="24.402872"
     x="-2.7740993"
     y="-2.7998905"
     inkscape:export-xdpi="48"
     inkscape:export-ydpi="48" />
  <g
     id="g4806"
     transform="matrix(0.8523911,0,0,0.8523911,2.2903988,1.409426)">
    <g
       id="g4790">
      <g
         id="g4775">
        <g
           id="g4761">
          <path
             d="M 15.514608,6.7314593 8.7917435,9.7872274 15.514608,13.761079 22.237472,9.7872274 Z"
             id="path2"
             inkscape:connector-curvature="0"
             style="opacity:0.60000999;fill:#010101;stroke-width:0.14545043" />
          <path
             d="m 8.7917973,9.787082 6.7228647,3.973851 V 6.7313139 -1.367948 L 8.7917973,9.7869365 Z"
             id="path4"
             inkscape:connector-curvature="0"
             style="opacity:0.45;fill:#010101;stroke-width:0.14545043" />
          <path
             d="M 15.514608,-1.3678026 V 6.7314593 13.761079 L 22.237472,9.7872274 15.514608,-1.3676571 Z"
             id="path6"
             inkscape:connector-curvature="0"
             style="opacity:0.8;fill:#010101;stroke-width:0.14545043" />
          <path
             d="m 8.7917973,11.061955 6.7228647,9.473768 v -5.501808 z"
             id="path8"
             inkscape:connector-curvature="0"
             style="opacity:0.45;fill:#010101;stroke-width:0.14545043" />
          <path
             d="m 15.514662,15.033915 v 5.501808 l 6.726937,-9.473768 z"
             id="path10"
             inkscape:connector-curvature="0"
             style="opacity:0.8;fill:#010101;stroke-width:0.14545043" />
          <path
             style="color:#000000;font-style:normal;font-variant:normal;font-weight:normal;font-stretch:normal;font-size:medium;line-height:normal;font-family:sans-serif;font-variant-ligatures:normal;font-variant-position:normal;font-variant-caps:normal;font-variant-numeric:normal;font-variant-alternates:normal;font-feature-settings:normal;text-indent:0;text-align:start;text-decoration:none;text-decoration-line:none;text-decoration-style:solid;text-decoration-color:#000000;letter-spacing:normal;word-spacing:normal;text-transform:none;writing-mode:lr-tb;direction:ltr;text-orientation:mixed;dominant-baseline:auto;baseline-shift:baseline;text-anchor:start;white-space:normal;shape-padding:0;clip-rule:nonzero;display:inline;overflow:visible;visibility:visible;opacity:1;isolation:auto;mix-blend-mode:normal;color-interpolation:sRGB;color-interpolation-filters:linearRGB;solid-color:#000000;solid-opacity:1;vector-effect:none;fill:#000000;fill-opacity:1;fill-rule:nonzero;stroke:none;stroke-width:0.29578403;stroke-linecap:butt;stroke-linejoin:miter;stroke-miterlimit:4;stroke-dasharray:none;stroke-dashoffset:0;stroke-opacity:1;color-rendering:auto;image-rendering:auto;shape-rendering:auto;text-rendering:auto;enable-background:accumulate"
             d="m 10.297327,10.599161 -0.0099,0.03951 0.04119,0.02438 z"
             id="path4657"
             inkscape:connector-curvature="0" />
          <path
             style="opacity:0.60000999;fill:#ffffff;stroke-width:0.14545043"
             inkscape:connector-curvature="0"
             id="path4671"
             d="M 15.514608,6.6604457 8.7917435,9.7162138 15.514608,13.690065 22.237472,9.7162138 Z" />
          <path
             style="opacity:0.45;fill:#ffffff;stroke-width:0.14545043"
             inkscape:connector-curvature="0"
             id="path4673"
             d="M 8.7917973,9.7160684 15.514662,13.68992 V 6.6603003 -1.4389616 L 8.7917973,9.7159229 Z" />
          <path
             style="opacity:0.8;fill:#ffffff;stroke-width:0.14545043"
             inkscape:connector-curvature="0"
             id="path4675"
             d="M 15.514608,-1.4388162 V 6.6604457 13.690065 L 22.237472,9.7162138 15.514608,-1.4386707 Z" />
          <path
             style="opacity:0.45;fill:#ffffff;stroke-width:0.14545043"
             inkscape:connector-curvature="0"
             id="path4677"
             d="M 8.7917973,10.990941 15.514662,20.46471 V 14.962902 Z" />
          <path
             style="opacity:0.8;fill:#ffffff;stroke-width:0.14545043"
             inkscape:connector-curvature="0"
             id="path4679"
             d="m 15.514662,14.962902 v 5.501808 l 6.726937,-9.473769 z" />
        </g>
      </g>
    </g>
  </g>
  <path
     style="color:#000000;font-style:normal;font-variant:normal;font-weight:normal;font-stretch:normal;font-size:medium;line-height:normal;font-family:sans-serif;font-variant-ligatures:normal;font-variant-position:normal;font-variant-caps:normal;font-variant-numeric:normal;font-variant-alternates:normal;font-feature-settings:normal;text-indent:0;text-align:start;text-decoration:none;text-decoration-line:none;text-decoration-style:solid;text-decoration-color:#000000;letter-spacing:normal;word-spacing:normal;text-transform:none;writing-mode:lr-tb;direction:ltr;text-orientation:mixed;dominant-baseline:auto;baseline-shift:baseline;text-anchor:start;white-space:normal;shape-padding:0;clip-rule:nonzero;display:inline;overflow:visible;visibility:visible;opacity:1;isolation:auto;mix-blend-mode:normal;color-interpolation:sRGB;color-interpolation-filters:linearRGB;solid-color:#000000;solid-opacity:1;vector-effect:none;fill:#6dd97b;fill-opacity:1;fill-rule:nonzero;stroke:#6dd97b;stroke-width:0.39899072;stroke-linecap:butt;stroke-linejoin:miter;stroke-miterlimit:4;stroke-dasharray:none;stroke-dashoffset:0;stroke-opacity:1;color-rendering:auto;image-rendering:auto;shape-rendering:auto;text-rendering:auto;enable-background:accumulate"
     d="m 6.7444177,12.670239 -3.7142559,4.897994 -1.5243345,-2.025026 -1.08452986,0.87179 -1.17154199,-2.231947 -3.30734825,3.986143 0.4902622,0.143159 2.7191149,-3.276901 1.08631509,2.070733 1.17223571,-0.941821 1.6353448,2.173253 3.6094906,-4.759394 1.5265959,3.048118 1.8669966,-2.838457 -0.3522509,-0.355645 -1.45904,2.218333 z"
     id="path4649"
     inkscape:connector-curvature="0" />
  <path
     id="path4667"
     d="M 24.583786,8.6837946 28.496535,3.9330602 29.76235,6.0065678 30.857794,5.1761236 31.773732,7.4433298 35.22621,3.5872024 34.776281,3.4269451 31.937868,6.5969555 31.088666,4.4935325 29.904671,5.3906655 28.54674,3.1654017 24.744388,7.7816914 23.562635,4.6880403 21.564153,7.4513613 21.866125,7.8185442 23.427934,5.658929 Z"
     style="color:#000000;font-style:normal;font-variant:normal;font-weight:normal;font-stretch:normal;font-size:medium;line-height:normal;font-family:sans-serif;font-variant-ligatures:normal;font-variant-position:normal;font-variant-caps:normal;font-variant-numeric:normal;font-variant-alternates:normal;font-feature-settings:normal;text-indent:0;text-align:start;text-decoration:none;text-decoration-line:none;text-decoration-style:solid;text-decoration-color:#000000;letter-spacing:normal;word-spacing:normal;text-transform:none;writing-mode:lr-tb;direction:ltr;text-orientation:mixed;dominant-baseline:auto;baseline-shift:baseline;text-anchor:start;white-space:normal;shape-padding:0;clip-rule:nonzero;display:inline;overflow:visible;visibility:visible;opacity:1;isolation:auto;mix-blend-mode:normal;color-interpolation:sRGB;color-interpolation-filters:linearRGB;solid-color:#000000;solid-opacity:1;vector-effect:none;fill:#6dd97b;fill-opacity:1;fill-rule:nonzero;stroke:#6dd97b;stroke-width:0.38735279;stroke-linecap:butt;stroke-linejoin:miter;stroke-miterlimit:4;stroke-dasharray:none;stroke-dashoffset:0;stroke-opacity:1;color-rendering:auto;image-rendering:auto;shape-rendering:auto;text-rendering:auto;enable-background:accumulate"
     inkscape:connector-curvature="0" />
</svg>
